一轉，我進入了純白的世界。
仿彿進入了空白的畫布中，眼前一片純白。
不可思議的是，感覺不到炫目。

這裡是、死後的世界？
比想像中更寂寞的地方。
可是，如果死後只有『無』的話，也許沒有比這裡更適合的場所了。
在無限寬廣、一片純白的世界裡，只有我一人───

『────────────────────て──』

誒？
感覺聽到了聲音。

『───を──────て──』

走馬燈應該結束了。
直到幼年期，看過了全部的記憶。
那麼，這個聲音是⋯⋯？

『───を──け──げて──』

眼前。
漸漸開始形成人影的圖像。

『───を、助け──げて──』

聲音越來越清楚。
聲音的主人是⋯⋯⋯

女孩子？

具體的容姿模糊看不清。
但是⋯⋯看上去像是女孩子。

然後，聲音變得清楚了。
女孩子清清楚楚地說到。

『──救救他──』

他。
是指誰呢？

⋯⋯對我來說，只指一個人。

「我也想這麼做」

發出了⋯⋯類似聲音的東西。

「但是，現在已經沒辦法了⋯⋯！結束了⋯⋯⋯一切都結束了⋯⋯」

女孩子慢慢地搖頭。
然後露出微笑───

───告訴瑞秋。

『──沒事的──』
『──從現在開始──』
『──他、在等你喲──』

純白的世界。
再次被染成漆黑。