(圖片001)
(圖片002)

「太好了！這下你就是我的奴隸了」

莉莉希娅·蘭格巴德

(圖片003)

「......艾特。我，好像變得很奇怪......。身體，熱得不行......」
艾特以仰面朝天的姿勢，被推倒在床上。
莉莉希娅面紅耳赤，哈哈地呼出熾熱的吐息。
「艾特......我還想要」

「能讓我也成為艾特的眷屬嗎？」
芭妮拉

(圖片004)

「不管是我，還是她，都憎恨人類——僅此而已」
阿莎蕾娅